Visualizations - STARTER
…
Exercise

Using the code chunk below, create scatterplots of carat vs price that is colored by cut and facetted by color and clarity. Try a few different options for scales to see how they affect the plot.

# create a sample from of data with fewer levels (variety from ordinal scale of each)
diamonds_sample <- diamonds %>% 
  filter(cut %in% unique(diamonds$cut)[c(1,3,5)],
         color %in% unique(diamonds$color)[c(1,4,7)],
         clarity %in% unique(diamonds$clarity)[c(1,4,8)]) %>% 
  sample_n(size = 5000)

diamonds_sample

# A tibble: 5,000 × 10
   carat cut   color clarity depth table price     x     y     z
   <dbl> <ord> <ord> <ord>   <dbl> <dbl> <int> <dbl> <dbl> <dbl>
 1  0.33 Ideal E     VS2      61.6    55   873  4.46  4.5   2.76
 2  0.91 Good  E     SI2      63.9    61  3538  6.03  6.09  3.87
 3  1.01 Ideal D     SI2      62.6    56  4872  6.4   6.34  3.99
 4  2.21 Ideal H     SI2      61.9    56 13615  8.4   8.36  5.19
 5  0.3  Ideal D     VS2      61.8    55   911  4.34  4.3   2.67
 6  0.53 Ideal D     SI2      60.4    57  1314  5.26  5.3   3.19
 7  1.01 Good  E     VS2      63.3    60  6399  6.3   6.33  4   
 8  0.56 Ideal D     VS2      61.1    56  1963  5.3   5.33  3.25
 9  0.43 Ideal D     VS2      61.8    56  1129  4.83  4.81  2.98
10  0.5  Ideal E     VS2      61.6    56  1554  5.1   5.13  3.15
# ℹ 4,990 more rows
…
